log/waveform_1.vcd
$date
	Fri Dec 29 02:15:51 2023
$end
$version
	Icarus Verilog
$end
$timescale
	1s
$end
$scope module TestBench $end
$var reg 1 ! Clk $end
$var reg 1 " Reset $end
$var integer 32 # counter [31:0] $end
$var integer 32 $ i [31:0] $end
$var integer 32 % outfile [31:0] $end
$scope module CPU $end
$var wire 1 & ID_FlushIF $end
$var wire 1 ! clk_i $end
$var wire 1 " rst_i $end
$var wire 1 ' stall $end
$var wire 32 ( pc_o [31:0] $end
$var wire 32 ) instr_o [31:0] $end
$var wire 1 * Xor_EXpredict_IDpredict_data_o $end
$var wire 32 + Sign_Extend_extended_im [31:0] $end
$var wire 32 , Register_RS2data_o [31:0] $end
$var wire 32 - Register_RS1data_o [31:0] $end
$var wire 1 . PCWrite $end
$var wire 1 / NoOp $end
$var wire 32 0 MUX_branch_o [31:0] $end
$var wire 32 1 MUX_WB_o [31:0] $end
$var wire 32 2 MUX_PC_o [31:0] $end
$var wire 32 3 MUX_ALUSrc_o [31:0] $end
$var wire 2 4 MUX3_RD2_signal [1:0] $end
$var wire 32 5 MUX3_RD2_data_o [31:0] $end
$var wire 2 6 MUX3_RD1_signal [1:0] $end
$var wire 32 7 MUX3_RD1_data_o [31:0] $end
$var wire 5 8 MEMWB_RegisterRd_o [4:0] $end
$var wire 1 9 MEMWB_RegWrite_o $end
$var wire 32 : MEMWB_ReadData_o [31:0] $end
$var wire 1 ; MEMWB_MemToReg_o $end
$var wire 32 < MEMWB_ALUres_o [31:0] $end
$var wire 32 = Instruction_Memory_instr_o [31:0] $end
$var wire 32 > IFID_PC_o [31:0] $end
$var wire 7 ? IDEX_func7_o [6:0] $end
$var wire 3 @ IDEX_func3_o [2:0] $end
$var wire 32 A IDEX_extended_im_o [31:0] $end
$var wire 1 B IDEX_branch_o $end
$var wire 1 C IDEX_branch $end
$var wire 5 D IDEX_RegisterRd_o [4:0] $end
$var wire 5 E IDEX_RegisterR2_o [4:0] $end
$var wire 5 F IDEX_RegisterR1_o [4:0] $end
$var wire 1 G IDEX_RegWrite_o $end
$var wire 1 H IDEX_RegWrite $end
$var wire 32 I IDEX_RS2data_o [31:0] $end
$var wire 32 J IDEX_RS1data_o [31:0] $end
$var wire 32 K IDEX_PC_o [31:0] $end
$var wire 1 L IDEX_MemWrite_o $end
$var wire 1 M IDEX_MemWrite $end
$var wire 1 N IDEX_MemToReg_o $end
$var wire 1 O IDEX_MemToReg $end
$var wire 1 P IDEX_MemRead_o $end
$var wire 1 Q IDEX_MemRead $end
$var wire 32 R IDEX_Branch_PC_o [31:0] $end
$var wire 1 S IDEX_BranchPredict_o $end
$var wire 1 T IDEX_ALUSrc_o $end
$var wire 1 U IDEX_ALUSrc $end
$var wire 2 V IDEX_ALUOp_o [1:0] $end
$var wire 2 W IDEX_ALUOp [1:0] $end
$var wire 5 X EXMEM_RegisterRd_o [4:0] $end
$var wire 1 Y EXMEM_RegWrite_o $end
$var wire 32 Z EXMEM_RS2data_o [31:0] $end
$var wire 1 [ EXMEM_MemWrite_o $end
$var wire 1 \ EXMEM_MemToReg_o $end
$var wire 1 ] EXMEM_MemRead_o $end
$var wire 32 ^ EXMEM_ALUres_o [31:0] $end
$var wire 32 _ Data_Memory_data_o [31:0] $end
$var wire 1 ` Branch_predictor_predict_o $end
$var wire 32 a Branch_PC_o [31:0] $end
$var wire 1 b And_rd1_rd2_branch_data_o $end
$var wire 1 c And_IDEXBranch_Xor_data_o $end
$var wire 32 d Add_PC_pc_o [31:0] $end
$var wire 1 e ALU_predict_o $end
$var wire 32 f ALU_ALUres [31:0] $end
$var wire 3 g ALU_ALUctrl [2:0] $end
$var reg 1 h And_IDEXBranch_Xor_data_o_reg $end
$var reg 1 i Branch_predictor_predict_o_reg $end
$var reg 1 j MEMWB_RegWrite_o_reg $end
$var reg 1 k NoOp_reg $end
$var reg 1 l PCWrite_reg $end
$var reg 1 m Xor_EXpredict_IDpredict_data_o_reg $end
$var reg 1 n stall_reg $end
$scope module ALU $end
$var wire 32 o readData2 [31:0] $end
$var wire 32 p readData1 [31:0] $end
$var wire 1 B branch_i $end
$var wire 3 q ALUctrl [2:0] $end
$var reg 32 r ALUres [31:0] $end
$var reg 32 s data_o [31:0] $end
$var reg 1 e predict_o $end
$upscope $end
$scope module ALU_Control $end
$var wire 7 t func7 [6:0] $end
$var wire 3 u func3 [2:0] $end
$var wire 2 v ALUOp [1:0] $end
$var reg 3 w ALUctrl [2:0] $end
$upscope $end
$scope module Add_PC $end
$var wire 32 x pc_i [31:0] $end
$var reg 32 y pc_o [31:0] $end
$upscope $end
$scope module And_IDEXBranch_Xor $end
$var wire 1 m data2_i $end
$var wire 1 c data_o $end
$var wire 1 B data1_i $end
$upscope $end
$scope module And_rd1_rd2_branch $end
$var wire 1 z data2_i $end
$var wire 1 b data_o $end
$var wire 1 C data1_i $end
$upscope $end
$scope module Branch_PC $end
$var wire 32 { src1 [31:0] $end
$var wire 32 | src2 [31:0] $end
$var wire 32 } AdderRes [31:0] $end
$upscope $end
$scope module Control $end
$var wire 1 k NoOp $end
$var wire 7 ~ ctrlCode [6:0] $end
$var reg 2 !" ALUOp [1:0] $end
$var reg 1 U ALUSrc $end
$var reg 1 C Branch_o $end
$var reg 1 Q MemRead $end
$var reg 1 O MemToReg $end
$var reg 1 M MemWrite $end
$var reg 1 H RegWrite $end
$upscope $end
$scope module Data_Memory $end
$var wire 1 ! clk_i $end
$var wire 32 "" data_o [31:0] $end
$var wire 32 #" data_i [31:0] $end
$var wire 32 $" addr_i [31:0] $end
$var wire 1 [ MemWrite_i $end
$var wire 1 ] MemRead_i $end
$upscope $end
$scope module EXMEM_register $end
$var wire 32 %" ALUres_i [31:0] $end
$var wire 1 ! clk_i $end
$var wire 1 " rst_i $end
$var wire 5 &" RegisterRd_i [4:0] $end
$var wire 1 G RegWrite_i $end
$var wire 32 '" RS2data_i [31:0] $end
$var wire 1 L MemWrite_i $end
$var wire 1 N MemToReg_i $end
$var wire 1 P MemRead_i $end
$var reg 32 (" ALUres [31:0] $end
$var reg 32 )" ALUres_o [31:0] $end
$var reg 1 *" MemRead $end
$var reg 1 ] MemRead_o $end
$var reg 1 +" MemToReg $end
$var reg 1 \ MemToReg_o $end
$var reg 1 ," MemWrite $end
$var reg 1 [ MemWrite_o $end
$var reg 32 -" RS2data [31:0] $end
$var reg 32 ." RS2data_o [31:0] $end
$var reg 1 /" RegWrite $end
$var reg 1 Y RegWrite_o $end
$var reg 5 0" RegisterRd [4:0] $end
$var reg 5 1" RegisterRd_o [4:0] $end
$upscope $end
$scope module ForwardingUnit $end
$var wire 5 2" EXMEM_Rd [4:0] $end
$var wire 1 Y EXMEM_RegWrite $end
$var wire 1 9 MEMWB_RegWrite $end
$var wire 5 3" MEMWB_Rd [4:0] $end
$var wire 5 4" IDEX_Rs2 [4:0] $end
$var wire 5 5" IDEX_Rs1 [4:0] $end
$var reg 2 6" ForwardA [1:0] $end
$var reg 2 7" ForwardB [1:0] $end
$upscope $end
$scope module Hazard_Detection $end
$var wire 5 8" IFID_Rs1 [4:0] $end
$var wire 5 9" IFID_Rs2 [4:0] $end
$var wire 5 :" IDEX_Rd [4:0] $end
$var wire 1 P IDEX_MemRead $end
$var reg 1 / NoOp $end
$var reg 1 . PCWrite $end
$var reg 1 ' Stall_o $end
$upscope $end
$scope module ID_EX $end
$var wire 2 ;" ALUOp_i [1:0] $end
$var wire 1 U ALUSrc_i $end
$var wire 1 i BranchPredict_i $end
$var wire 32 <" Branch_PC_i [31:0] $end
$var wire 1 C Branch_i $end
$var wire 1 h IDEX_flush_i $end
$var wire 1 Q MemRead_i $end
$var wire 1 O MemToReg_i $end
$var wire 1 M MemWrite_i $end
$var wire 1 H RegWrite_i $end
$var wire 5 =" RegisterR1_i [4:0] $end
$var wire 5 >" RegisterR2_i [4:0] $end
$var wire 5 ?" RegisterRd_i [4:0] $end
$var wire 1 ! clk_i $end
$var wire 3 @" func3_i [2:0] $end
$var wire 7 A" func7_i [6:0] $end
$var wire 1 " rst_i $end
$var wire 32 B" extended_im_i [31:0] $end
$var wire 32 C" RS2data_i [31:0] $end
$var wire 32 D" RS1data_i [31:0] $end
$var wire 32 E" PC_i [31:0] $end
$var reg 2 F" ALUOp [1:0] $end
$var reg 2 G" ALUOp_o [1:0] $end
$var reg 1 H" ALUSrc $end
$var reg 1 T ALUSrc_o $end
$var reg 1 I" Branch $end
$var reg 1 J" BranchPredict $end
$var reg 1 S BranchPredict_o $end
$var reg 32 K" Branch_PC [31:0] $end
$var reg 32 L" Branch_PC_o [31:0] $end
$var reg 1 B Branch_o $end
$var reg 1 M" MemRead $end
$var reg 1 P MemRead_o $end
$var reg 1 N" MemToReg $end
$var reg 1 N MemToReg_o $end
$var reg 1 O" MemWrite $end
$var reg 1 L MemWrite_o $end
$var reg 32 P" PC [31:0] $end
$var reg 32 Q" PC_o [31:0] $end
$var reg 32 R" RS1data [31:0] $end
$var reg 32 S" RS1data_o [31:0] $end
$var reg 32 T" RS2data [31:0] $end
$var reg 32 U" RS2data_o [31:0] $end
$var reg 1 V" RegWrite $end
$var reg 1 G RegWrite_o $end
$var reg 5 W" RegisterR1 [4:0] $end
$var reg 5 X" RegisterR1_o [4:0] $end
$var reg 5 Y" RegisterR2 [4:0] $end
$var reg 5 Z" RegisterR2_o [4:0] $end
$var reg 5 [" RegisterRd [4:0] $end
$var reg 5 \" RegisterRd_o [4:0] $end
$var reg 32 ]" extended_im [31:0] $end
$var reg 32 ^" extended_im_o [31:0] $end
$var reg 3 _" func3 [2:0] $end
$var reg 3 `" func3_o [2:0] $end
$var reg 7 a" func7 [6:0] $end
$var reg 7 b" func7_o [6:0] $end
$upscope $end
$scope module IF_ID $end
$var wire 1 c" IFID_flush_i $end
$var wire 1 n IFID_stall_i $end
$var wire 1 ! clk_i $end
$var wire 1 d" flush_i $end
$var wire 1 " rst_i $end
$var wire 32 e" instruction_i [31:0] $end
$var wire 32 f" PC_i [31:0] $end
$var reg 32 g" PC [31:0] $end
$var reg 32 h" PC_o [31:0] $end
$var reg 32 i" instruction [31:0] $end
$var reg 32 j" instruction_o [31:0] $end
$upscope $end
$scope module Instruction_Memory $end
$var wire 32 k" instr_o [31:0] $end
$var wire 32 l" addr_i [31:0] $end
$upscope $end
$scope module MEMWB_register $end
$var wire 32 m" ALUres_i [31:0] $end
$var wire 1 \ MemToReg_i $end
$var wire 32 n" ReadData_i [31:0] $end
$var wire 1 Y RegWrite_i $end
$var wire 5 o" RegisterRd_i [4:0] $end
$var wire 1 ! clk_i $end
$var wire 1 " rst_i $end
$var reg 32 p" ALUres [31:0] $end
$var reg 32 q" ALUres_o [31:0] $end
$var reg 1 r" MemToReg $end
$var reg 1 ; MemToReg_o $end
$var reg 32 s" ReadData [31:0] $end
$var reg 32 t" ReadData_o [31:0] $end
$var reg 1 u" RegWrite $end
$var reg 1 9 RegWrite_o $end
$var reg 5 v" RegisterRd [4:0] $end
$var reg 5 w" RegisterRd_o [4:0] $end
$upscope $end
$scope module MUX3_RD1 $end
$var wire 32 x" data1_i [31:0] $end
$var wire 32 y" data3_i [31:0] $end
$var wire 2 z" signal [1:0] $end
$var wire 32 {" data2_i [31:0] $end
$var reg 32 |" data_o [31:0] $end
$upscope $end
$scope module MUX3_RD2 $end
$var wire 32 }" data1_i [31:0] $end
$var wire 32 ~" data3_i [31:0] $end
$var wire 2 !# signal [1:0] $end
$var wire 32 "# data2_i [31:0] $end
$var reg 32 ## data_o [31:0] $end
$upscope $end
$scope module MUX_ALUSrc $end
$var wire 1 T ALUSrc $end
$var wire 32 $# im [31:0] $end
$var wire 32 %# readData1 [31:0] $end
$var wire 32 &# readData2 [31:0] $end
$upscope $end
$scope module MUX_PC $end
$var wire 1 '# ALUSrc $end
$var wire 32 (# readData1 [31:0] $end
$var wire 32 )# readData2 [31:0] $end
$var wire 32 *# im [31:0] $end
$upscope $end
$scope module MUX_WB $end
$var wire 1 ; ALUSrc $end
$var wire 32 +# im [31:0] $end
$var wire 32 ,# readData1 [31:0] $end
$var wire 32 -# readData2 [31:0] $end
$upscope $end
$scope module MUX_branch $end
$var wire 1 h ALUSrc $end
$var wire 32 .# im [31:0] $end
$var wire 32 /# readData1 [31:0] $end
$var wire 32 0# readData2 [31:0] $end
$upscope $end
$scope module PC $end
$var wire 1 l PCWrite_i $end
$var wire 1 ! clk_i $end
$var wire 32 1# pc_i [31:0] $end
$var wire 1 " rst_i $end
$var reg 32 2# pc_o [31:0] $end
$upscope $end
$scope module Registers $end
$var wire 5 3# RDaddr_i [4:0] $end
$var wire 32 4# RDdata_i [31:0] $end
$var wire 5 5# RS1addr_i [4:0] $end
$var wire 5 6# RS2addr_i [4:0] $end
$var wire 1 j RegWrite_i $end
$var wire 1 ! clk_i $end
$var wire 1 " rst_i $end
$var wire 32 7# RS2data_o [31:0] $end
$var wire 32 8# RS1data_o [31:0] $end
$var integer 32 9# i [31:0] $end
$upscope $end
$scope module Sign_Extend $end
$var wire 32 :# im [31:0] $end
$var reg 32 ;# extended_im [31:0] $end
$upscope $end
$scope module Xor_EXpredict_IDpredict $end
$var wire 1 e data1_i $end
$var wire 1 S data2_i $end
$var wire 1 * data_o $end
$upscope $end
$scope module branch_predictor $end
$var wire 1 C branch_i $end
$var wire 1 e branch_taken_i $end
$var wire 1 B branch_taken_valid_i $end
$var reg 1 <# predict_o $end
$var reg 1 ` prediction_o $end
$var reg 2 =# state [1:0] $end
$upscope $end
$upscope $end
$upscope $end
$enddefinitions $end
#0
$dumpvars
b0 =#
1<#
bx ;#
bx :#
bx 9#
bx 8#
bx 7#
bx 6#
bx 5#
bx 4#
bx 3#
bx 2#
bx 1#
bx 0#
bx /#
bx .#
bx -#
bx ,#
bx +#
bx *#
bx )#
bx (#
0'#
bx &#
bx %#
bx $#
bx ##
bx "#
bx !#
bx ~"
bx }"
bx |"
bx {"
bx z"
bx y"
bx x"
bx w"
bx v"
xu"
bx t"
bx s"
xr"
bx q"
bx p"
bx o"
bx n"
bx m"
bx l"
bx k"
bx j"
bx i"
bx h"
bx g"
bx f"
bx e"
0d"
0c"
bx b"
bx a"
bx `"
bx _"
bx ^"
bx ]"
bx \"
bx ["
bx Z"
bx Y"
bx X"
bx W"
xV"
bx U"
bx T"
bx S"
bx R"
bx Q"
bx P"
xO"
xN"
xM"
bx L"
bx K"
xJ"
xI"
xH"
bx G"
bx F"
bx E"
bx D"
bx C"
bx B"
bx A"
bx @"
bx ?"
bx >"
bx ="
bx <"
b0 ;"
bx :"
bx 9"
bx 8"
bx 7"
bx 6"
bx 5"
bx 4"
bx 3"
bx 2"
bx 1"
bx 0"
x/"
bx ."
bx -"
x,"
x+"
x*"
bx )"
bx ("
bx '"
bx &"
bx %"
bx $"
bx #"
bx ""
b0 !"
bx ~
bx }
bx |
bx0 {
xz
bx y
bx x
bx w
bx v
bx u
bx t
bx s
bx r
bx q
bx p
bx o
0n
0m
1l
0k
0j
0i
0h
bx g
bx f
xe
bx d
0c
0b
bx a
0`
bx _
bx ^
x]
x\
x[
bx Z
xY
bx X
b0 W
bx V
0U
xT
xS
bx R
0Q
xP
0O
xN
0M
xL
bx K
bx J
bx I
0H
xG
bx F
bx E
bx D
0C
xB
bx A
bx @
bx ?
bx >
bx =
bx <
x;
bx :
x9
bx 8
bx 7
bx 6
bx 5
bx 4
bx 3
bx 2
bx 1
bx 0
x/
x.
bx -
bx ,
bx +
x*
bx )
bx (
x'
0&
b11 %
b100000 $
b0 #
1"
0!
$end
#6
b100 2
b100 )#
b100 1#
b100 (#
b110000010011 =
b110000010011 e"
b110000010011 k"
b100 d
b100 y
b0 (
b0 x
b0 f"
b0 l"
b0 2#
b100000 9#
0"
#12
1"
#25
b1000 2
b1000 )#
b1000 1#
b1000 (#
b10000000000110100010011 =
b10000000000110100010011 e"
b10000000000110100010011 k"
b1000 d
b1000 y
0J"
0I"
0H"
b0 F"
0O"
0M"
0N"
0V"
b110000010011 i"
b0 g"
b100 (
b100 x
b100 f"
b100 l"
b100 2#
b1 #
1!
#50
b0 0
b0 *#
b0 0#
1z
b0 a
b0 }
b0 <"
b0 /#
b0 {
b0 ,
b0 C"
b0 7#
b0 -
b0 D"
b0 8#
1H
b11 W
b11 !"
b11 ;"
1U
b0 +
b0 B"
b0 ;#
b11000 ?"
b0 >"
b0 ="
b0 @"
b0 A"
b0 9"
b0 8"
b0 6#
b0 5#
b10011 ~
b111 g
b111 q
b111 w
0/
1.
0'
b110000010011 )
b110000010011 j"
b110000010011 :#
b0 >
b0 |
b0 E"
b0 h"
0S
0B
0T
b0 V
b0 v
b0 G"
0L
0P
0N
0G
0!
#75
b1100 2
b1100 )#
b1100 1#
b1100 (#
b10000000000111000010011 =
b10000000000111000010011 e"
b10000000000111000010011 k"
b1100 d
b1100 y
0,"
0*"
0+"
0/"
b11000 ["
b0 Y"
b0 W"
b0 _"
b0 a"
b0 ]"
b0 T"
b0 R"
b0 K"
1H"
b11 F"
1V"
b0 P"
b10000000000110100010011 i"
b100 g"
b1000 (
b1000 x
b1000 f"
b1000 l"
b1000 2#
b10 #
1!
#100
b1000 {
b0 s
b0 f
b0 r
b0 %"
b100 +
b100 B"
b100 ;#
b11010 ?"
b100 >"
b100 9"
b100 6#
b1100 0
b1100 *#
b1100 0#
b0 5
b0 '"
b0 ##
b0 %#
b0 7
b0 p
b0 |"
b0 3
b0 o
b0 &#
b0 _
b0 ""
b0 n"
b0 4
b0 7"
b0 !#
b0 6
b0 6"
b0 z"
b10000000000110100010011 )
b10000000000110100010011 j"
b10000000000110100010011 :#
b1100 a
b1100 }
b1100 <"
b1100 /#
b100 >
b100 |
b100 E"
b100 h"
b11000 D
b11000 &"
b11000 :"
b11000 \"
b0 E
b0 4"
b0 Z"
b0 F
b0 5"
b0 X"
b0 @
b0 u
b0 `"
b0 ?
b0 t
b0 b"
b0 A
b0 ^"
b0 $#
b0 I
b0 U"
b0 }"
b0 J
b0 S"
b0 x"
b0 R
b0 L"
b0 .#
1T
b11 V
b11 v
b11 G"
1G
b0 K
b0 Q"
0[
0]
0\
0Y
0!
#125
b10000 2
b10000 )#
b10000 1#
b10000 (#
b11111111111100000000011110010011 =
b11111111111100000000011110010011 e"
b11111111111100000000011110010011 k"
b10000 d
b10000 y
b0 s"
0r"
0u"
b11000 0"
b0 -"
b0 ("
1/"
b11010 ["
b100 Y"
b100 ]"
b1100 K"
b100 P"
b10000000000111000010011 i"
b1000 g"
b1100 (
b1100 x
b1100 f"
b1100 l"
b1100 2#
b11 #
1!
#150
b100 s
b100 f
b100 r
b100 %"
b11100 ?"
b10000 0
b10000 *#
b10000 0#
b100 3
b100 o
b100 &#
b10000000000111000010011 )
b10000000000111000010011 j"
b10000000000111000010011 :#
b10000 a
b10000 }
b10000 <"
b10000 /#
b1000 >
b1000 |
b1000 E"
b1000 h"
b11010 D
b11010 &"
b11010 :"
b11010 \"
b100 E
b100 4"
b100 Z"
b100 A
b100 ^"
b100 $#
b1100 R
b1100 L"
b1100 .#
b100 K
b100 Q"
b11000 X
b11000 1"
b11000 2"
b11000 o"
b0 Z
b0 #"
b0 ."
b0 ^
b0 $"
b0 )"
b0 m"
b0 y"
b0 ~"
1Y
b0 :
b0 t"
b0 +#
0;
09
0!
#175
b10100 2
b10100 )#
b10100 1#
b10100 (#
b11110011010000110010110011 =
b11110011010000110010110011 e"
b11110011010000110010110011 k"
b10100 d
b10100 y
b11000 v"
b0 p"
1u"
b11010 0"
b100 ("
b11100 ["
b10000 K"
b1000 P"
b11111111111100000000011110010011 i"
b1100 g"
b10000 (
b10000 x
b10000 f"
b10000 l"
b10000 2#
b100 #
1!
#200
1j
0z
b11111111111111111111111111111110 {
b111110 ,
b111110 C"
b111110 7#
b11111111111111111111111111111111 +
b11111111111111111111111111111111 B"
b11111111111111111111111111111111 ;#
b1111 ?"
b11111 >"
b1111111 A"
b11111 9"
b11111 6#
b1010 0
b1010 *#
b1010 0#
b0 1
b0 {"
b0 "#
b0 -#
b0 4#
b11111111111100000000011110010011 )
b11111111111100000000011110010011 j"
b11111111111100000000011110010011 :#
b1010 a
b1010 }
b1010 <"
b1010 /#
b1100 >
b1100 |
b1100 E"
b1100 h"
b11100 D
b11100 &"
b11100 :"
b11100 \"
b10000 R
b10000 L"
b10000 .#
b1000 K
b1000 Q"
b11010 X
b11010 1"
b11010 2"
b11010 o"
b100 ^
b100 $"
b100 )"
b100 m"
b100 y"
b100 ~"
b11000 8
b11000 3"
b11000 w"
b11000 3#
b0 <
b0 q"
b0 ,#
19
0!
#225
b11000 2
b11000 )#
b11000 1#
b11000 (#
b11111111111111010000110100010011 =
b11111111111111010000110100010011 e"
b11111111111111010000110100010011 k"
b11000 d
b11000 y
b11010 v"
b100 p"
b11100 0"
b1111 ["
b11111 Y"
b1111111 a"
b11111111111111111111111111111111 ]"
b111110 T"
b1010 K"
b1100 P"
b11110011010000110010110011 i"
b10000 g"
b10100 (
b10100 x
b10100 f"
b10100 l"
b10100 2#
b101 #
1!
#250
b111000 ,
b111000 C"
b111000 7#
b100 -
b100 D"
b100 8#
b10 W
b10 !"
b10 ;"
0U
b11111111111111111111111111111111 s
b11111111111111111111111111111111 f
b11111111111111111111111111111111 r
b11111111111111111111111111111111 %"
b11001 ?"
b11100 >"
b11010 ="
b1 A"
b11100 9"
b11010 8"
b11100 6#
b11010 5#
b110011 ~
b1110 0
b1110 *#
b1110 0#
b11111111111111111111111111111111 3
b11111111111111111111111111111111 o
b11111111111111111111111111111111 &#
b111110 5
b111110 '"
b111110 ##
b111110 %#
b100 1
b100 {"
b100 "#
b100 -#
b100 4#
b11110011010000110010110011 )
b11110011010000110010110011 j"
b11110011010000110010110011 :#
b1110 a
b1110 }
b1110 <"
b1110 /#
b10000 >
b10000 |
b10000 E"
b10000 h"
b1111 D
b1111 &"
b1111 :"
b1111 \"
b11111 E
b11111 4"
b11111 Z"
b1111111 ?
b1111111 t
b1111111 b"
b11111111111111111111111111111111 A
b11111111111111111111111111111111 ^"
b11111111111111111111111111111111 $#
b111110 I
b111110 U"
b111110 }"
b1010 R
b1010 L"
b1010 .#
b1100 K
b1100 Q"
b11100 X
b11100 1"
b11100 2"
b11100 o"
b11010 8
b11010 3"
b11010 w"
b11010 3#
b100 <
b100 q"
b100 ,#
0!
#275
b11100 2
b11100 )#
b11100 1#
b11100 (#
b11001010110110000011 =
b11001010110110000011 e"
b11001010110110000011 k"
b11100 d
b11100 y
b11100 v"
b1111 0"
b111110 -"
b11111111111111111111111111111111 ("
b11001 ["
b11100 Y"
b11010 W"
b1 a"
b111000 T"
b100 R"
b1110 K"
0H"
b10 F"
b10000 P"
b11111111111111010000110100010011 i"
b10100 g"
b11000 (
b11000 x
b11000 f"
b11000 l"
b11000 2#
b110 #
1!
#300
0z
b11 W
b11 !"
b11 ;"
1U
b10000 s
b10000 f
b10000 r
b10000 %"
b111110 ,
b111110 C"
b111110 7#
b11010 ?"
b11111 >"
b1111111 A"
b11111 9"
b11111 6#
b10011 ~
b10010 0
b10010 *#
b10010 0#
b100 3
b100 o
b100 &#
b101 g
b101 q
b101 w
b100 7
b100 p
b100 |"
b100 5
b100 '"
b100 ##
b100 %#
b1 4
b1 7"
b1 !#
b11111111111111010000110100010011 )
b11111111111111010000110100010011 j"
b11111111111111010000110100010011 :#
b10010 a
b10010 }
b10010 <"
b10010 /#
b10100 >
b10100 |
b10100 E"
b10100 h"
b11001 D
b11001 &"
b11001 :"
b11001 \"
b11100 E
b11100 4"
b11100 Z"
b11010 F
b11010 5"
b11010 X"
b1 ?
b1 t
b1 b"
b111000 I
b111000 U"
b111000 }"
b100 J
b100 S"
b100 x"
b1110 R
b1110 L"
b1110 .#
0T
b10 V
b10 v
b10 G"
b10000 K
b10000 Q"
b1111 X
b1111 1"
b1111 2"
b1111 o"
b111110 Z
b111110 #"
b111110 ."
b11111111111111111111111111111111 ^
b11111111111111111111111111111111 $"
b11111111111111111111111111111111 )"
b11111111111111111111111111111111 m"
b11111111111111111111111111111111 y"
b11111111111111111111111111111111 ~"
b11100 8
b11100 3"
b11100 w"
b11100 3#
0!
#325
b100000 2
b100000 )#
b100000 1#
b100000 (#
b1101111000000110000110011 =
b1101111000000110000110011 e"
b1101111000000110000110011 k"
b100000 d
b100000 y
b1111 v"
b11111111111111111111111111111111 p"
b11001 0"
b100 -"
b10000 ("
b11010 ["
b11111 Y"
b1111111 a"
b111110 T"
b10010 K"
1H"
b11 F"
b10100 P"
b11001010110110000011 i"
b11000 g"
b11100 (
b11100 x
b11100 f"
b11100 l"
b11100 2#
b111 #
1!
#350
b0 {
b0 ,
b0 C"
b0 7#
b11111111111111111111111111100111 -
b11111111111111111111111111100111 D"
b11111111111111111111111111100111 8#
1O
1Q
b0 W
b0 !"
b0 ;"
b11 s
b11 f
b11 r
b11 %"
b0 +
b0 B"
b0 ;#
b11011 ?"
b0 >"
b11001 ="
b10 @"
b0 A"
b0 9"
b11001 8"
b0 6#
b11001 5#
b11 ~
b11000 0
b11000 *#
b11000 0#
b11111111111111111111111111111111 3
b11111111111111111111111111111111 o
b11111111111111111111111111111111 &#
b111 g
b111 q
b111 w
b111110 5
b111110 '"
b111110 ##
b111110 %#
b0 4
b0 7"
b0 !#
b11111111111111111111111111111111 1
b11111111111111111111111111111111 {"
b11111111111111111111111111111111 "#
b11111111111111111111111111111111 -#
b11111111111111111111111111111111 4#
b11001010110110000011 )
b11001010110110000011 j"
b11001010110110000011 :#
b11000 a
b11000 }
b11000 <"
b11000 /#
b11000 >
b11000 |
b11000 E"
b11000 h"
b11010 D
b11010 &"
b11010 :"
b11010 \"
b11111 E
b11111 4"
b11111 Z"
b1111111 ?
b1111111 t
b1111111 b"
b111110 I
b111110 U"
b111110 }"
b10010 R
b10010 L"
b10010 .#
1T
b11 V
b11 v
b11 G"
b10100 K
b10100 Q"
b11001 X
b11001 1"
b11001 2"
b11001 o"
b100 Z
b100 #"
b100 ."
b10000 ^
b10000 $"
b10000 )"
b10000 m"
b10000 y"
b10000 ~"
b1111 8
b1111 3"
b1111 w"
b1111 3#
b11111111111111111111111111111111 <
b11111111111111111111111111111111 q"
b11111111111111111111111111111111 ,#
0!
#375
b100100 2
b100100 )#
b100100 1#
b100100 (#
b111111010000010001100011 =
b111111010000010001100011 e"
b111111010000010001100011 k"
b100100 d
b100100 y
b11001 v"
b10000 p"
b11010 0"
b111110 -"
b11 ("
b11011 ["
b0 Y"
b11001 W"
b10 _"
b0 a"
b0 ]"
b0 T"
b11111111111111111111111111100111 R"
b11000 K"
b0 F"
1M"
1N"
b11000 P"
b1101111000000110000110011 i"
b11100 g"
b100000 (
b100000 x
b100000 f"
b100000 l"
b100000 2#
b1000 #
1!
#400
0H
1k
0l
1n
1/
0.
1'
b11111111111111111111111111100101 ,
b11111111111111111111111111100101 C"
b11111111111111111111111111100101 7#
0O
0Q
b0 W
b0 !"
b0 ;"
0U
b10000 s
b10000 f
b10000 r
b10000 %"
b0 -
b0 D"
b0 8#
b11000 ?"
b11011 >"
b11000 ="
b0 @"
b11011 9"
b11000 8"
b11011 6#
b11000 5#
b110011 ~
b11100 0
b11100 *#
b11100 0#
b0 3
b0 o
b0 &#
b10000 7
b10000 p
b10000 |"
b0 5
b0 '"
b0 ##
b0 %#
b1 6
b1 6"
b1 z"
b10000 1
b10000 {"
b10000 "#
b10000 -#
b10000 4#
b1101111000000110000110011 )
b1101111000000110000110011 j"
b1101111000000110000110011 :#
b11100 a
b11100 }
b11100 <"
b11100 /#
b11100 >
b11100 |
b11100 E"
b11100 h"
b11011 D
b11011 &"
b11011 :"
b11011 \"
b0 E
b0 4"
b0 Z"
b11001 F
b11001 5"
b11001 X"
b10 @
b10 u
b10 `"
b0 ?
b0 t
b0 b"
b0 A
b0 ^"
b0 $#
b0 I
b0 U"
b0 }"
b11111111111111111111111111100111 J
b11111111111111111111111111100111 S"
b11111111111111111111111111100111 x"
b11000 R
b11000 L"
b11000 .#
b0 V
b0 v
b0 G"
1P
1N
b11000 K
b11000 Q"
b11010 X
b11010 1"
b11010 2"
b11010 o"
b111110 Z
b111110 #"
b111110 ."
b11 ^
b11 $"
b11 )"
b11 m"
b11 y"
b11 ~"
b11001 8
b11001 3"
b11001 w"
b11001 3#
b10000 <
b10000 q"
b10000 ,#
0!
#425
b11010 v"
b11 p"
b11011 0"
b0 -"
b10000 ("
1*"
1+"
b11000 ["
b11011 Y"
b11000 W"
b0 _"
b11111111111111111111111111100101 T"
b0 R"
b11100 K"
0H"
0M"
0N"
0V"
b11100 P"
b1001 #
1!
#450
1H
b10 W
b10 !"
b10 ;"
0k
1l
0n
b10000 3
b10000 o
b10000 &#
0/
1.
0'
b0 7
b0 p
b0 |"
b10000 5
b10000 '"
b10000 ##
b10000 %#
b11101 _
b11101 ""
b11101 n"
b10 4
b10 7"
b10 !#
b0 6
b0 6"
b0 z"
b11 1
b11 {"
b11 "#
b11 -#
b11 4#
b11000 D
b11000 &"
b11000 :"
b11000 \"
b11011 E
b11011 4"
b11011 Z"
b11000 F
b11000 5"
b11000 X"
b0 @
b0 u
b0 `"
b11111111111111111111111111100101 I
b11111111111111111111111111100101 U"
b11111111111111111111111111100101 }"
b0 J
b0 S"
b0 x"
b11100 R
b11100 L"
b11100 .#
0T
0P
0N
0G
b11100 K
b11100 Q"
b11011 X
b11011 1"
b11011 2"
b11011 o"
b0 Z
b0 #"
b0 ."
b10000 ^
b10000 $"
b10000 )"
b10000 m"
b10000 y"
b10000 ~"
1]
1\
b11010 8
b11010 3"
b11010 w"
b11010 3#
b11 <
b11 q"
b11 ,#
0!
